[gd_scene load_steps=4 format=2]

[ext_resource path="res://blokoj/asteroidoj/resursoj/ast_ice_2_cr.glb" type="PackedScene" id=1]
[ext_resource path="res://blokoj/asteroidoj/skriptoj/ast_.gd" type="Script" id=2]

[sub_resource type="ConcavePolygonShape3D" id=1]
data = PackedVector3Array( -6.2932, -8.0255, 4.5021, -2.4874, -14.722, 3.4511, -9.0116, -5.31, -2.516, -4.4892, 2.5971, 3.475, -6.701, 3.5221, -0.5809, -3.2832, 5.5768, 0.3426, -9.0632, -5.2018, -3.5827, -7.3766, 0.3427, -3.2219, -6.701, 3.5221, -0.5809, -9.0632, -5.2018, -3.5827, -5.6839, -4.9611, -5.787, -7.3766, 0.3427, -3.2219, -9.0632, -5.2018, -3.5827, -6.1161, -7.5333, -5.9623, -5.6839, -4.9611, -5.787, -6.701, 3.5221, -0.5809, -5.5995, 2.7172, -5.9392, -4.9008, 4.8915, -5.2282, -6.701, 3.5221, -0.5809, -7.3766, 0.3427, -3.2219, -5.5995, 2.7172, -5.9392, -6.1161, -7.5333, -5.9623, -2.4357, -8.8331, -9.4046, -5.6839, -4.9611, -5.787, -5.5995, 2.7172, -5.9392, -7.3766, 0.3427, -3.2219, -3.2697, -0.2797, -6.6452, -4.9008, 4.8915, -5.2282, -5.5995, 2.7172, -5.9392, -1.8362, 5.0236, -6.5565, -1.8362, 5.0236, -6.5565, -5.5995, 2.7172, -5.9392, 1.143, 1.6149, -8.862, -0.038, 5.6252, -4.2713, -4.9008, 4.8915, -5.2282, -1.8362, 5.0236, -6.5565, -0.038, 5.6252, -4.2713, -1.8362, 5.0236, -6.5565, 2.6283, 3.2317, -7.5693, -6.6503, 0.0245, 2.8433, -6.2932, -8.0255, 4.5021, -9.0116, -5.31, -2.516, -6.6503, 0.0245, 2.8433, -9.0116, -5.31, -2.516, -9.0632, -5.2018, -3.5827, -2.3843, 2.0474, 8.2297, -4.4892, 2.5971, 3.475, -3.2832, 5.5768, 0.3426, -0.9813, -12.1389, -8.1656, 0.9811, -9.2344, -10.2904, -2.4357, -8.8331, -9.4046, -9.0116, -5.31, -2.516, 0.8059, -19.2395, 3.8578, -2.3471, -13.2255, -5.4493, 0.9811, -9.2344, -10.2904, 6.2193, -9.4997, -9.7788, 2.5555, -4.0138, -10.5948, 2.5555, -4.0138, -10.5948, 9.3533, -6.1251, -9.579, 8.0265, 0.85, -8.5065, 9.1552, 6.8691, -5.1039, 4.8601, 4.556, -8.1969, 9.8579, 4.9326, -7.7402, 9.8579, 4.9326, -7.7402, 8.0265, 0.85, -8.5065, 12.472, -3.7336, -8.338, 9.1552, 6.8691, -5.1039, 12.1274, 5.8293, -5.7838, 11.4916, 9.6299, -4.1009, 12.1274, 5.8293, -5.7838, 14.7574, 5.9279, -2.7599, 11.4916, 9.6299, -4.1009, -2.2544, -5.8498, -9.8039, 2.5555, -4.0138, -10.5948, 1.143, 1.6149, -8.862, 2.6283, 3.2317, -7.5693, 1.143, 1.6149, -8.862, 4.8601, 4.556, -8.1969, 6.1026, 12.3385, -2.5051, 4.6593, 6.8208, -5.8282, 9.1552, 6.8691, -5.1039, 11.6494, 12.7011, -1.2179, 11.4916, 9.6299, -4.1009, 13.7408, 9.1017, -0.3085, 15.4778, -0.0754, -3.528, 20.3674, -5.7613, -0.1969, 16.094, 3.5507, -0.8567, 15.4778, -0.0754, -3.528, 17.5147, -7.2213, -2.9249, 20.3674, -5.7613, -0.1969, 12.9644, -17.4205, -2.6658, 17.2038, -10.282, -3.7868, 14.3603, -8.2292, -5.7076, 20.3674, -5.7613, -0.1969, 20.7248, -3.6416, 5.3791, 19.1333, 2.072, 5.2734, 16.094, 3.5507, -0.8567, 19.1333, 2.072, 5.2734, 13.7408, 9.1017, -0.3085, 13.7408, 9.1017, -0.3085, 14.7456, 11.0103, 5.153, 11.6494, 12.7011, -1.2179, 17.753, 6.0462, 8.6852, 21.1632, -3.2019, 9.6004, 18.6653, 0.5098, 10.4912, 18.6653, 0.5098, 10.4912, 21.1632, -3.2019, 9.6004, 18.991, -2.8486, 12.8878, 18.991, -2.8486, 12.8878, 21.2837, -8.9679, 11.0488, 16.9101, -4.3412, 15.1238, 13.8392, 7.1301, 10.8332, 18.6653, 0.5098, 10.4912, 16.9101, -4.3412, 15.1238, 18.6653, 0.5098, 10.4912, 18.991, -2.8486, 12.8878, 16.9101, -4.3412, 15.1238, 13.8392, 7.1301, 10.8332, 16.9101, -4.3412, 15.1238, 13.6309, 0.8135, 14.7485, 20.3674, -5.7613, -0.1969, 17.8903, -13.6205, -0.6116, 19.8739, -9.9462, 3.8517, 21.2837, -8.9679, 11.0488, 20.7122, -12.6707, 8.042, 17.9803, -10.7711, 12.615, 17.9803, -10.7711, 12.615, 20.7122, -12.6707, 8.042, 17.3572, -12.5454, 11.3291, 19.8739, -9.9462, 3.8517, 20.3274, -13.4754, 4.8898, 20.7122, -12.6707, 8.042, 11.8827, -5.7648, 14.2294, 14.5334, -11.968, 12.7128, 11.0363, -9.1539, 16.1283, 11.8827, -5.7648, 14.2294, 11.0363, -9.1539, 16.1283, 8.5859, -1.0315, 13.6716, 11.0363, -9.1539, 16.1283, 14.5334, -11.968, 12.7128, 9.8466, -14.9919, 14.8816, 6.6329, -5.6953, 16.2428, 11.0363, -9.1539, 16.1283, 5.8142, -12.4994, 17.6598, 4.4085, 10.5251, 9.9493, 7.7588, 6.3128, 12.7507, 6.5029, 2.7332, 13.2199, 4.4085, 10.5251, 9.9493, 6.5029, 2.7332, 13.2199, -0.0465, 2.4486, 10.3944, 5.8142, -12.4994, 17.6598, 9.8466, -14.9919, 14.8816, 3.554, -15.5511, 16.6341, 0.6092, -2.9823, 12.6502, 1.5201, -12.0941, 16.696, -3.0842, -8.1477, 9.261, 11.8827, -5.7648, 14.2294, 17.9803, -10.7711, 12.615, 14.5334, -11.968, 12.7128, -2.3843, 2.0474, 8.2297, -4.1451, -3.0849, 7.5351, -6.6503, 0.0245, 2.8433, -3.0842, -8.1477, 9.261, -1.1777, -11.521, 10.2574, -6.2932, -8.0255, 4.5021, -1.1777, -11.521, 10.2574, -2.4874, -14.722, 3.4511, -3.2975, -11.8027, 7.6987, 6.6252, -20.1536, 11.9925, 4.2664, -20.6473, 8.4758, 3.554, -15.5511, 16.6341, 17.3572, -12.5454, 11.3291, 9.8466, -14.9919, 14.8816, 14.5334, -11.968, 12.7128, 19.1058, -16.0566, 4.1367, 10.2492, -21.1654, 0.3797, 12.8825, -20.9756, 4.3642, 10.2492, -21.1654, 0.3797, 3.7981, -19.8759, -0.9887, 4.2664, -20.6473, 8.4758, 19.8952, -15.2324, 7.144, 12.8825, -20.9756, 4.3642, 16.2426, -16.7816, 8.6226, 12.8825, -20.9756, 4.3642, 10.2492, -21.1654, 0.3797, 4.2664, -20.6473, 8.4758, 6.2193, -9.4997, -9.7788, 0.9811, -9.2344, -10.2904, -0.9813, -12.1389, -8.1656, 14.3603, -8.2292, -5.7076, 6.2193, -9.4997, -9.7788, 12.9644, -17.4205, -2.6658, 17.2038, -10.282, -3.7868, 12.9644, -17.4205, -2.6658, 17.8903, -13.6205, -0.6116, 19.8739, -9.9462, 3.8517, 19.1058, -16.0566, 4.1367, 20.3274, -13.4754, 4.8898, 19.8952, -15.2324, 7.144, 17.3572, -12.5454, 11.3291, 20.7122, -12.6707, 8.042, 16.2426, -16.7816, 8.6226, 9.8466, -14.9919, 14.8816, 17.3572, -12.5454, 11.3291, 4.2664, -20.6473, 8.4758, -2.4874, -14.722, 3.4511, -1.1777, -11.521, 10.2574, 4.0572, 16.8136, 1.4355, 11.6494, 12.7011, -1.2179, 6.6756, 15.6386, 3.7051, 6.6756, 15.6386, 3.7051, 12.2565, 13.5495, 5.0466, 8.1768, 12.1566, 8.0594, -0.632, 12.9147, -1.6884, 4.0572, 16.8136, 1.4355, 0.9711, 16.391, 1.7147, 4.0572, 16.8136, 1.4355, 2.7075, 13.5706, 5.8657, 0.9711, 16.391, 1.7147, -2.1837, 13.255, 0.5441, 0.9711, 16.391, 1.7147, 2.7075, 13.5706, 5.8657, -2.3233, 6.9541, 3.8561, 2.7075, 13.5706, 5.8657, -0.0689, 4.3386, 9.4509, 2.5666, 5.4032, -5.7654, -0.632, 12.9147, -1.6884, -0.038, 5.6252, -4.2713, -0.632, 12.9147, -1.6884, -2.1837, 13.255, 0.5441, -3.2832, 5.5768, 0.3426, -3.2832, 5.5768, 0.3426, -2.1837, 13.255, 0.5441, -2.3233, 6.9541, 3.8561, -3.2832, 5.5768, 0.3426, -2.3233, 6.9541, 3.8561, -2.3843, 2.0474, 8.2297, -0.0689, 4.3386, 9.4509, 2.7075, 13.5706, 5.8657, 4.4085, 10.5251, 9.9493, 5.0868, 12.7712, 7.7221, 9.477, 8.8764, 10.8646, 4.4085, 10.5251, 9.9493, 8.1768, 12.1566, 8.0594, 12.2565, 13.5495, 5.0466, 9.477, 8.8764, 10.8646, 11.6494, 12.7011, -1.2179, 14.7456, 11.0103, 5.153, 12.2565, 13.5495, 5.0466, -6.6503, 0.0245, 2.8433, -6.701, 3.5221, -0.5809, -4.4892, 2.5971, 3.475, -9.0116, -5.31, -2.516, -6.1161, -7.5333, -5.9623, -9.0632, -5.2018, -3.5827, -6.701, 3.5221, -0.5809, -4.9008, 4.8915, -5.2282, -3.2832, 5.5768, 0.3426, -4.9008, 4.8915, -5.2282, -0.038, 5.6252, -4.2713, -3.2832, 5.5768, 0.3426, -2.4357, -8.8331, -9.4046, -3.2697, -0.2797, -6.6452, -5.6839, -4.9611, -5.787, -5.6839, -4.9611, -5.787, -3.2697, -0.2797, -6.6452, -7.3766, 0.3427, -3.2219, -2.4357, -8.8331, -9.4046, -2.2544, -5.8498, -9.8039, -3.2697, -0.2797, -6.6452, -5.5995, 2.7172, -5.9392, -3.2697, -0.2797, -6.6452, 1.143, 1.6149, -8.862, -3.2975, -11.8027, 7.6987, -2.4874, -14.722, 3.4511, -6.2932, -8.0255, 4.5021, -6.6503, 0.0245, 2.8433, -9.0632, -5.2018, -3.5827, -6.701, 3.5221, -0.5809, -6.6503, 0.0245, 2.8433, -4.4892, 2.5971, 3.475, -2.3843, 2.0474, 8.2297, -0.038, 5.6252, -4.2713, 2.6283, 3.2317, -7.5693, 2.5666, 5.4032, -5.7654, -1.8362, 5.0236, -6.5565, 1.143, 1.6149, -8.862, 2.6283, 3.2317, -7.5693, -2.2544, -5.8498, -9.8039, 1.143, 1.6149, -8.862, -3.2697, -0.2797, -6.6452, 0.9811, -9.2344, -10.2904, 2.5555, -4.0138, -10.5948, -2.2544, -5.8498, -9.8039, -2.4357, -8.8331, -9.4046, 0.9811, -9.2344, -10.2904, -2.2544, -5.8498, -9.8039, -0.9813, -12.1389, -8.1656, -2.4357, -8.8331, -9.4046, -6.1161, -7.5333, -5.9623, -2.3471, -13.2255, -5.4493, -0.9813, -12.1389, -8.1656, -6.1161, -7.5333, -5.9623, -2.3471, -13.2255, -5.4493, -6.1161, -7.5333, -5.9623, -9.0116, -5.31, -2.516, -2.4874, -14.722, 3.4511, 0.8059, -19.2395, 3.8578, -9.0116, -5.31, -2.516, 1.143, 1.6149, -8.862, 2.5555, -4.0138, -10.5948, 4.8601, 4.556, -8.1969, 2.5555, -4.0138, -10.5948, 8.0265, 0.85, -8.5065, 4.8601, 4.556, -8.1969, 2.6283, 3.2317, -7.5693, 4.8601, 4.556, -8.1969, 4.6593, 6.8208, -5.8282, 6.2193, -9.4997, -9.7788, 9.3533, -6.1251, -9.579, 2.5555, -4.0138, -10.5948, 4.6593, 6.8208, -5.8282, 4.8601, 4.556, -8.1969, 9.1552, 6.8691, -5.1039, 8.0265, 0.85, -8.5065, 9.3533, -6.1251, -9.579, 12.472, -3.7336, -8.338, 8.0265, 0.85, -8.5065, 9.8579, 4.9326, -7.7402, 4.8601, 4.556, -8.1969, 9.3533, -6.1251, -9.579, 14.3603, -8.2292, -5.7076, 12.472, -3.7336, -8.338, 12.472, -3.7336, -8.338, 12.1274, 5.8293, -5.7838, 9.8579, 4.9326, -7.7402, 9.8579, 4.9326, -7.7402, 12.1274, 5.8293, -5.7838, 9.1552, 6.8691, -5.1039, 12.472, -3.7336, -8.338, 14.3603, -8.2292, -5.7076, 17.5147, -7.2213, -2.9249, 12.472, -3.7336, -8.338, 17.5147, -7.2213, -2.9249, 15.4778, -0.0754, -3.528, 21.2837, -8.9679, 11.0488, 20.7248, -3.6416, 5.3791, 20.7122, -12.6707, 8.042, 21.1632, -3.2019, 9.6004, 20.7248, -3.6416, 5.3791, 21.2837, -8.9679, 11.0488, 14.3603, -8.2292, -5.7076, 17.2038, -10.282, -3.7868, 17.5147, -7.2213, -2.9249, 15.4778, -0.0754, -3.528, 16.094, 3.5507, -0.8567, 14.7574, 5.9279, -2.7599, 2.5666, 5.4032, -5.7654, 2.6283, 3.2317, -7.5693, 4.6593, 6.8208, -5.8282, 9.1552, 6.8691, -5.1039, 11.4916, 9.6299, -4.1009, 6.1026, 12.3385, -2.5051, 14.7574, 5.9279, -2.7599, 13.7408, 9.1017, -0.3085, 11.4916, 9.6299, -4.1009, 17.2038, -10.282, -3.7868, 17.8903, -13.6205, -0.6116, 17.5147, -7.2213, -2.9249, 17.5147, -7.2213, -2.9249, 17.8903, -13.6205, -0.6116, 20.3674, -5.7613, -0.1969, 6.2193, -9.4997, -9.7788, 14.3603, -8.2292, -5.7076, 9.3533, -6.1251, -9.579, 15.4778, -0.0754, -3.528, 12.1274, 5.8293, -5.7838, 12.472, -3.7336, -8.338, 14.7574, 5.9279, -2.7599, 12.1274, 5.8293, -5.7838, 15.4778, -0.0754, -3.528, 20.3674, -5.7613, -0.1969, 19.1333, 2.072, 5.2734, 16.094, 3.5507, -0.8567, 19.1333, 2.072, 5.2734, 14.7456, 11.0103, 5.153, 13.7408, 9.1017, -0.3085, 19.8739, -9.9462, 3.8517, 20.7122, -12.6707, 8.042, 20.7248, -3.6416, 5.3791, 20.7248, -3.6416, 5.3791, 21.1632, -3.2019, 9.6004, 19.1333, 2.072, 5.2734, 19.1333, 2.072, 5.2734, 17.753, 6.0462, 8.6852, 14.7456, 11.0103, 5.153, 1.5201, -12.0941, 16.696, 6.6329, -5.6953, 16.2428, 5.8142, -12.4994, 17.6598, 0.6092, -2.9823, 12.6502, 6.6329, -5.6953, 16.2428, 1.5201, -12.0941, 16.696, 21.1632, -3.2019, 9.6004, 17.753, 6.0462, 8.6852, 19.1333, 2.072, 5.2734, 21.1632, -3.2019, 9.6004, 21.2837, -8.9679, 11.0488, 18.991, -2.8486, 12.8878, 17.753, 6.0462, 8.6852, 13.8392, 7.1301, 10.8332, 14.7456, 11.0103, 5.153, 21.2837, -8.9679, 11.0488, 17.9803, -10.7711, 12.615, 16.9101, -4.3412, 15.1238, 17.753, 6.0462, 8.6852, 18.6653, 0.5098, 10.4912, 13.8392, 7.1301, 10.8332, 13.8392, 7.1301, 10.8332, 7.7588, 6.3128, 12.7507, 9.477, 8.8764, 10.8646, 20.3674, -5.7613, -0.1969, 19.8739, -9.9462, 3.8517, 20.7248, -3.6416, 5.3791, 16.094, 3.5507, -0.8567, 13.7408, 9.1017, -0.3085, 14.7574, 5.9279, -2.7599, 14.7456, 11.0103, 5.153, 13.8392, 7.1301, 10.8332, 12.2565, 13.5495, 5.0466, 12.2565, 13.5495, 5.0466, 13.8392, 7.1301, 10.8332, 9.477, 8.8764, 10.8646, 13.6309, 0.8135, 14.7485, 7.7588, 6.3128, 12.7507, 13.8392, 7.1301, 10.8332, 16.9101, -4.3412, 15.1238, 17.9803, -10.7711, 12.615, 11.8827, -5.7648, 14.2294, 13.6309, 0.8135, 14.7485, 11.8827, -5.7648, 14.2294, 8.5859, -1.0315, 13.6716, 13.6309, 0.8135, 14.7485, 8.5859, -1.0315, 13.6716, 6.5029, 2.7332, 13.2199, 11.0363, -9.1539, 16.1283, 6.6329, -5.6953, 16.2428, 8.5859, -1.0315, 13.6716, 6.6329, -5.6953, 16.2428, 0.6092, -2.9823, 12.6502, 8.5859, -1.0315, 13.6716, 8.5859, -1.0315, 13.6716, 0.6092, -2.9823, 12.6502, 6.5029, 2.7332, 13.2199, 11.0363, -9.1539, 16.1283, 9.8466, -14.9919, 14.8816, 5.8142, -12.4994, 17.6598, 6.5029, 2.7332, 13.2199, 0.6092, -2.9823, 12.6502, -0.0465, 2.4486, 10.3944, 5.8142, -12.4994, 17.6598, 3.554, -15.5511, 16.6341, 1.5201, -12.0941, 16.696, -1.1777, -11.521, 10.2574, 1.5201, -12.0941, 16.696, 3.554, -15.5511, 16.6341, -1.1777, -11.521, 10.2574, -3.0842, -8.1477, 9.261, 1.5201, -12.0941, 16.696, 19.1058, -16.0566, 4.1367, 12.9644, -17.4205, -2.6658, 10.2492, -21.1654, 0.3797, 19.1058, -16.0566, 4.1367, 17.8903, -13.6205, -0.6116, 12.9644, -17.4205, -2.6658, -0.0465, 2.4486, 10.3944, 0.6092, -2.9823, 12.6502, -4.1451, -3.0849, 7.5351, -0.0465, 2.4486, 10.3944, -4.1451, -3.0849, 7.5351, -2.3843, 2.0474, 8.2297, -0.0465, 2.4486, 10.3944, -2.3843, 2.0474, 8.2297, -0.0689, 4.3386, 9.4509, 0.6092, -2.9823, 12.6502, -3.0842, -8.1477, 9.261, -4.1451, -3.0849, 7.5351, 17.9803, -10.7711, 12.615, 17.3572, -12.5454, 11.3291, 14.5334, -11.968, 12.7128, 16.9101, -4.3412, 15.1238, 11.8827, -5.7648, 14.2294, 13.6309, 0.8135, 14.7485, 7.7588, 6.3128, 12.7507, 13.6309, 0.8135, 14.7485, 6.5029, 2.7332, 13.2199, 9.477, 8.8764, 10.8646, 7.7588, 6.3128, 12.7507, 4.4085, 10.5251, 9.9493, -0.0465, 2.4486, 10.3944, -0.0689, 4.3386, 9.4509, 4.4085, 10.5251, 9.9493, -0.0689, 4.3386, 9.4509, -2.3843, 2.0474, 8.2297, -2.3233, 6.9541, 3.8561, -3.0842, -8.1477, 9.261, -6.2932, -8.0255, 4.5021, -4.1451, -3.0849, 7.5351, -4.1451, -3.0849, 7.5351, -6.2932, -8.0255, 4.5021, -6.6503, 0.0245, 2.8433, -1.1777, -11.521, 10.2574, -3.2975, -11.8027, 7.6987, -6.2932, -8.0255, 4.5021, 4.2664, -20.6473, 8.4758, -1.1777, -11.521, 10.2574, 3.554, -15.5511, 16.6341, 9.8466, -14.9919, 14.8816, 6.6252, -20.1536, 11.9925, 3.554, -15.5511, 16.6341, 6.2193, -9.4997, -9.7788, 3.7981, -19.8759, -0.9887, 12.9644, -17.4205, -2.6658, 12.9644, -17.4205, -2.6658, 3.7981, -19.8759, -0.9887, 10.2492, -21.1654, 0.3797, 19.1058, -16.0566, 4.1367, 12.8825, -20.9756, 4.3642, 19.8952, -15.2324, 7.144, 3.7981, -19.8759, -0.9887, 0.8059, -19.2395, 3.8578, 4.2664, -20.6473, 8.4758, 12.8825, -20.9756, 4.3642, 4.2664, -20.6473, 8.4758, 9.0459, -19.8822, 9.1761, 12.8825, -20.9756, 4.3642, 9.0459, -19.8822, 9.1761, 16.2426, -16.7816, 8.6226, 9.0459, -19.8822, 9.1761, 4.2664, -20.6473, 8.4758, 6.6252, -20.1536, 11.9925, 6.2193, -9.4997, -9.7788, -0.9813, -12.1389, -8.1656, 3.7981, -19.8759, -0.9887, 17.8903, -13.6205, -0.6116, 19.1058, -16.0566, 4.1367, 19.8739, -9.9462, 3.8517, 20.3274, -13.4754, 4.8898, 19.1058, -16.0566, 4.1367, 19.8952, -15.2324, 7.144, 20.3274, -13.4754, 4.8898, 19.8952, -15.2324, 7.144, 20.7122, -12.6707, 8.042, 16.2426, -16.7816, 8.6226, 17.3572, -12.5454, 11.3291, 19.8952, -15.2324, 7.144, 9.0459, -19.8822, 9.1761, 9.8466, -14.9919, 14.8816, 16.2426, -16.7816, 8.6226, 6.6252, -20.1536, 11.9925, 9.8466, -14.9919, 14.8816, 9.0459, -19.8822, 9.1761, 0.8059, -19.2395, 3.8578, -2.4874, -14.722, 3.4511, 4.2664, -20.6473, 8.4758, 3.7981, -19.8759, -0.9887, -2.3471, -13.2255, -5.4493, 0.8059, -19.2395, 3.8578, -0.9813, -12.1389, -8.1656, -2.3471, -13.2255, -5.4493, 3.7981, -19.8759, -0.9887, 6.1026, 12.3385, -2.5051, 4.0572, 16.8136, 1.4355, -0.632, 12.9147, -1.6884, 4.6593, 6.8208, -5.8282, -0.632, 12.9147, -1.6884, 2.5666, 5.4032, -5.7654, 11.6494, 12.7011, -1.2179, 12.2565, 13.5495, 5.0466, 6.6756, 15.6386, 3.7051, -0.632, 12.9147, -1.6884, 0.9711, 16.391, 1.7147, -2.1837, 13.255, 0.5441, 6.6756, 15.6386, 3.7051, 8.1768, 12.1566, 8.0594, 5.0868, 12.7712, 7.7221, 5.0868, 12.7712, 7.7221, 2.7075, 13.5706, 5.8657, 6.6756, 15.6386, 3.7051, 6.6756, 15.6386, 3.7051, 2.7075, 13.5706, 5.8657, 4.0572, 16.8136, 1.4355, -2.1837, 13.255, 0.5441, 2.7075, 13.5706, 5.8657, -2.3233, 6.9541, 3.8561, 11.4916, 9.6299, -4.1009, 11.6494, 12.7011, -1.2179, 6.1026, 12.3385, -2.5051, 6.1026, 12.3385, -2.5051, 11.6494, 12.7011, -1.2179, 4.0572, 16.8136, 1.4355, 6.1026, 12.3385, -2.5051, -0.632, 12.9147, -1.6884, 4.6593, 6.8208, -5.8282, -0.632, 12.9147, -1.6884, -3.2832, 5.5768, 0.3426, -0.038, 5.6252, -4.2713, 5.0868, 12.7712, 7.7221, 4.4085, 10.5251, 9.9493, 2.7075, 13.5706, 5.8657, 9.477, 8.8764, 10.8646, 5.0868, 12.7712, 7.7221, 8.1768, 12.1566, 8.0594 )

[node name="ast_ice_2_cr" instance=ExtResource( 1 )]
script = ExtResource( 2 )

[node name="StaticBody3D" type="StaticBody3D" parent="ast_ice_2" index="0"]

[node name="CollisionShape3D" type="CollisionShape3D" parent="ast_ice_2/StaticBody3D" index="0"]
shape = SubResource( 1 )

[connection signal="input_event" from="ast_ice_2/StaticBody3D" to="." method="_on_StaticBody_input_event"]
