[gd_scene load_steps=3 format=2]

[ext_resource path="res://blokoj/kosmosxipoj/skriptoj/base_ship.gd" type="Script" id=1]

[sub_resource type="CapsuleShape3D" id=1]
radius = 3.29615
height = 9.14674

[node name="ship" type="CharacterBody3D"]
script = ExtResource( 1 )

[node name="CollisionShape3D" type="CollisionShape3D" parent="."]
transform = Transform3D( 1, 0, 0, 0, 1, 0, 0, 0, 1, 0, 3.06553, 5.3188 )
shape = SubResource( 1 )
