[gd_scene load_steps=3 format=2]

[ext_resource path="res://kerno/fenestroj/tipo_a1.tscn" type="PackedScene" id=1]
[ext_resource path="res://blokoj/administri/skriptoj/tempo_informpeto.gd" type="Script" id=2]

[node name="tempo_informpeto" instance=ExtResource( 1 )]
script = ExtResource( 2 )

[node name="VBox" parent="." index="0"]
visible = false

[node name="menuo_name" parent="VBox/HBox_top/top_texture2/HBox_buttons" index="0"]
text = "Среднее время запросов"

[node name="table" type="Tree" parent="VBox/body_texture" index="1"]
anchor_right = 1.0
anchor_bottom = 1.0
size_flags_horizontal = 3
size_flags_vertical = 3
columns = 3
allow_reselect = true
select_mode = 1
__meta__ = {
"_edit_use_anchors_": false
}

[connection signal="focus_entered" from="VBox/body_texture/table" to="." method="_on_table_focus_entered"]
